<svg id="Capa_1" data-name="Capa 1" xmlns="http://www.w3.org/2000/svg" viewBox="0 0 145.694 145.694">
  <defs>
    <style>
      .cls-1 {
        fill: #161615;
      }

      .cls-2 {
        fill: #fff;
      }
    </style>
  </defs>
  <title>logo bstim</title>
  <g>
    <path class="cls-1" d="M79.689,9.821a72.847,72.847,0,1,0,72.847,72.847A72.848,72.848,0,0,0,79.689,9.821h0Z" transform="translate(-6.843 -9.821)"/>
    <path class="cls-2" d="M79.689,13.676A68.992,68.992,0,1,1,10.7,82.668,69.07,69.07,0,0,1,79.689,13.676" transform="translate(-6.843 -9.821)"/>
    <g>
      <path class="cls-1" d="M49.486,42.812a1.5,1.5,0,0,1-.862,2.8l-2.979,0V40.312h2.81a1.41,1.41,0,0,1,1.412,1.557A1.107,1.107,0,0,1,49.486,42.812Zm-2.778-.378h1.483a0.6,0.6,0,0,0,.656-0.66q-0.017-.388-0.646-0.409H46.708v1.07Zm0,2.344h1.73a0.691,0.691,0,0,0,.763-0.766q-0.017-.509-0.752-0.53h-1.74v1.3Z" transform="translate(-6.843 -9.821)"/>
      <path class="cls-1" d="M51.4,45.6V40.312l3.89,0V41.3H52.455v1.13h2.122v0.985H52.455v1.2h2.824V45.6H51.4Z" transform="translate(-6.843 -9.821)"/>
      <path class="cls-1" d="M59.348,40.486a2.461,2.461,0,0,1,.759.529l-0.706.706a1.216,1.216,0,0,0-.988-0.424,0.879,0.879,0,0,0-.812.3,0.413,0.413,0,0,0,0,.512,1.394,1.394,0,0,0,.812.318,2.627,2.627,0,0,1,1.218.441,1.326,1.326,0,0,1,.547,1.183,1.358,1.358,0,0,1-.584,1.094,2.141,2.141,0,0,1-1.361.459A3.14,3.14,0,0,1,57,45.393a2.673,2.673,0,0,1-.847-0.565l0.706-.706a1.677,1.677,0,0,0,1.2.494,0.968,0.968,0,0,0,.881-0.3,0.559,0.559,0,0,0,0-.6,1.1,1.1,0,0,0-.881-0.371,2.845,2.845,0,0,1-1.165-.389,1.171,1.171,0,0,1-.53-1.094,1.318,1.318,0,0,1,.6-1.128,2.119,2.119,0,0,1,1.238-.425A2.951,2.951,0,0,1,59.348,40.486Z" transform="translate(-6.843 -9.821)"/>
      <path class="cls-1" d="M65.575,40.309V41.3H63.81V45.6H62.751V41.3H60.986V40.309h4.589Z" transform="translate(-6.843 -9.821)"/>
      <path class="cls-1" d="M71.961,40.486a2.461,2.461,0,0,1,.759.529l-0.706.706a1.216,1.216,0,0,0-.988-0.424,0.879,0.879,0,0,0-.812.3,0.413,0.413,0,0,0,0,.512,1.394,1.394,0,0,0,.812.318,2.627,2.627,0,0,1,1.218.441,1.326,1.326,0,0,1,.547,1.183,1.358,1.358,0,0,1-.584,1.094,2.141,2.141,0,0,1-1.361.459,3.14,3.14,0,0,1-1.232-.212,2.673,2.673,0,0,1-.847-0.565l0.706-.706a1.677,1.677,0,0,0,1.2.494,0.968,0.968,0,0,0,.881-0.3,0.559,0.559,0,0,0,0-.6,1.1,1.1,0,0,0-.881-0.371,2.845,2.845,0,0,1-1.165-.389,1.171,1.171,0,0,1-.53-1.094,1.318,1.318,0,0,1,.6-1.128,2.119,2.119,0,0,1,1.238-.425A2.951,2.951,0,0,1,71.961,40.486Z" transform="translate(-6.843 -9.821)"/>
      <path class="cls-1" d="M74.358,44.844a2.727,2.727,0,1,1,1.888.761A2.565,2.565,0,0,1,74.358,44.844Zm1.892-.228a1.487,1.487,0,0,0,1.144-.476,1.8,1.8,0,0,0,0-2.365,1.619,1.619,0,0,0-2.294,0,1.8,1.8,0,0,0,0,2.365A1.5,1.5,0,0,0,76.25,44.616Z" transform="translate(-6.843 -9.821)"/>
      <path class="cls-1" d="M80.881,40.309v4.307H83.7V45.6H79.822v-5.3h1.059Z" transform="translate(-6.843 -9.821)"/>
      <path class="cls-1" d="M85.685,40.309V43.38a1.062,1.062,0,0,0,.353.883,1.52,1.52,0,0,0,1.765,0,1.062,1.062,0,0,0,.353-0.883V40.309h1.059v3.354a1.754,1.754,0,0,1-.654,1.377,2.668,2.668,0,0,1-3.283,0,1.756,1.756,0,0,1-.653-1.377V40.309h1.059Z" transform="translate(-6.843 -9.821)"/>
      <path class="cls-1" d="M94.811,40.309V41.3H93.045V45.6H91.986V41.3H90.221V40.309h4.589Z" transform="translate(-6.843 -9.821)"/>
      <path class="cls-1" d="M95.729,40.305h1.055v5.3H95.729v-5.3Z" transform="translate(-6.843 -9.821)"/>
      <path class="cls-1" d="M98.467,44.844a2.727,2.727,0,1,1,1.889.761A2.565,2.565,0,0,1,98.467,44.844Zm1.892-.228a1.488,1.488,0,0,0,1.144-.476,1.806,1.806,0,0,0,0-2.365,1.619,1.619,0,0,0-2.295,0,1.806,1.806,0,0,0,0,2.365A1.5,1.5,0,0,0,100.359,44.616Z" transform="translate(-6.843 -9.821)"/>
      <path class="cls-1" d="M103.921,45.6v-5.3h0.353l3.318,3.318V40.309h1.059v5.3h-0.388l-3.283-3.283V45.6h-1.059Z" transform="translate(-6.843 -9.821)"/>
      <path class="cls-1" d="M112.745,40.486a2.459,2.459,0,0,1,.759.529l-0.705.706a1.217,1.217,0,0,0-.989-0.424,0.881,0.881,0,0,0-.812.3,0.414,0.414,0,0,0,0,.512,1.4,1.4,0,0,0,.812.318,2.631,2.631,0,0,1,1.218.441,1.326,1.326,0,0,1,.547,1.183,1.357,1.357,0,0,1-.585,1.094,2.138,2.138,0,0,1-1.36.459,3.137,3.137,0,0,1-1.232-.212,2.675,2.675,0,0,1-.848-0.565l0.706-.706a1.675,1.675,0,0,0,1.2.494,0.969,0.969,0,0,0,.881-0.3,0.558,0.558,0,0,0,0-.6,1.1,1.1,0,0,0-.881-0.371,2.841,2.841,0,0,1-1.164-.389,1.171,1.171,0,0,1-.53-1.094,1.317,1.317,0,0,1,.6-1.128,2.117,2.117,0,0,1,1.237-.425A2.953,2.953,0,0,1,112.745,40.486Z" transform="translate(-6.843 -9.821)"/>
      <path class="cls-1" d="M45.715,48.981h1.056v5.3H45.715v-5.3Z" transform="translate(-6.843 -9.821)"/>
      <path class="cls-1" d="M50.725,54.28v-5.3h0.353L54.4,52.3V48.985h1.059v5.3H55.067L51.784,51V54.28H50.725Z" transform="translate(-6.843 -9.821)"/>
      <path class="cls-1" d="M69.129,48.985v0.988H67.364V54.28H66.305V49.973H64.54V48.985h4.589Z" transform="translate(-6.843 -9.821)"/>
      <path class="cls-1" d="M72.794,54.28V48.988l3.89,0v0.988H73.854V51.1h2.122v0.985H73.854v1.2h2.824V54.28H72.794Z" transform="translate(-6.843 -9.821)"/>
      <path class="cls-1" d="M82.386,51.523l-1.853-2.538h1.242l1.235,1.684,1.235-1.684H85.49l-1.854,2.538,2.023,2.757H84.4l-1.391-1.9-1.39,1.9H80.364Z" transform="translate(-6.843 -9.821)"/>
      <path class="cls-1" d="M93.56,48.985v0.988H91.795V54.28H90.736V49.973H88.971V48.985H93.56Z" transform="translate(-6.843 -9.821)"/>
      <path class="cls-1" d="M97.239,48.981h1.055v5.3H97.239v-5.3Z" transform="translate(-6.843 -9.821)"/>
      <path class="cls-1" d="M103.319,48.985v4.307h2.824V54.28H102.26v-5.3h1.059Z" transform="translate(-6.843 -9.821)"/>
      <path class="cls-1" d="M109.893,54.28V48.988l3.89,0v0.988h-2.831V51.1h2.121v0.985h-2.121v1.2h2.824V54.28h-3.883Z" transform="translate(-6.843 -9.821)"/>
    </g>
    <g>
      <path class="cls-1" d="M45.677,115v-5.3H46.03l2.295,2.612,2.3-2.612h0.353V115H49.917l0-3.071L48.325,113.7l-1.589-1.765V115H45.677Z" transform="translate(-6.843 -9.821)"/>
      <path class="cls-1" d="M51.782,115l2.118-5.3h1.059L57.074,115l-1.126,0-0.318-.812h-2.4L52.911,115h-1.13Zm2.676-3.883-0.8,2.012h1.589Z" transform="translate(-6.843 -9.821)"/>
      <path class="cls-1" d="M57.893,115v-5.3h0.353l3.318,3.318v-3.318h1.059V115H62.235l-3.283-3.283V115H57.893Z" transform="translate(-6.843 -9.821)"/>
      <path class="cls-1" d="M64.728,109.709v3.071a1.063,1.063,0,0,0,.353.883,1.52,1.52,0,0,0,1.765,0,1.063,1.063,0,0,0,.353-0.883v-3.071h1.059v3.354a1.755,1.755,0,0,1-.653,1.377,2.668,2.668,0,0,1-3.283,0,1.755,1.755,0,0,1-.653-1.377v-3.354h1.059Z" transform="translate(-6.843 -9.821)"/>
      <path class="cls-1" d="M69.427,115v-5.3h3.724V110.7H70.487v1.13h1.966v0.985H70.487V115H69.427Z" transform="translate(-6.843 -9.821)"/>
      <path class="cls-1" d="M73.671,115l2.118-5.3h1.059L78.963,115l-1.126,0-0.318-.812h-2.4L74.8,115h-1.13Zm2.676-3.883-0.8,2.012h1.589Z" transform="translate(-6.843 -9.821)"/>
      <path class="cls-1" d="M80.141,114.244a2.649,2.649,0,0,1,1.884-4.534,2.866,2.866,0,0,1,1.945.706l-0.706.773a1.952,1.952,0,0,0-1.239-.423,1.509,1.509,0,0,0-1.585,1.575,1.588,1.588,0,0,0,.441,1.172,1.562,1.562,0,0,0,1.151.434,1.9,1.9,0,0,0,1.232-.42L83.97,114.3a2.856,2.856,0,0,1-1.945.706A2.578,2.578,0,0,1,80.141,114.244Z" transform="translate(-6.843 -9.821)"/>
      <path class="cls-1" d="M89.46,109.709V110.7H87.694V115H86.635V110.7H84.87v-0.988H89.46Z" transform="translate(-6.843 -9.821)"/>
      <path class="cls-1" d="M91.255,109.709v3.071a1.062,1.062,0,0,0,.353.883,1.52,1.52,0,0,0,1.765,0,1.062,1.062,0,0,0,.353-0.883v-3.071h1.059v3.354a1.754,1.754,0,0,1-.654,1.377,2.668,2.668,0,0,1-3.283,0,1.756,1.756,0,0,1-.653-1.377v-3.354h1.059Z" transform="translate(-6.843 -9.821)"/>
      <path class="cls-1" d="M99.145,112.7L100.466,115H99.251l-1.268-2.189H97.017V115H95.957v-5.3h2.308q1.854,0,1.854,1.525A1.369,1.369,0,0,1,99.145,112.7Zm-2.128-.868H98.5a0.566,0.566,0,0,0,.656-0.583,0.554,0.554,0,0,0-.646-0.544H97.017v1.126Z" transform="translate(-6.843 -9.821)"/>
      <path class="cls-1" d="M101.045,109.705H102.1V115h-1.055v-5.3Z" transform="translate(-6.843 -9.821)"/>
      <path class="cls-1" d="M103.192,115v-5.3h0.353l3.318,3.318v-3.318h1.059V115h-0.388l-3.283-3.283V115h-1.059Z" transform="translate(-6.843 -9.821)"/>
      <path class="cls-1" d="M109.524,114.244a2.649,2.649,0,0,1,1.884-4.534,2.866,2.866,0,0,1,1.945.706l-0.706.773a1.952,1.952,0,0,0-1.239-.423,1.509,1.509,0,0,0-1.585,1.575,1.588,1.588,0,0,0,.441,1.172,1.562,1.562,0,0,0,1.151.434,1.466,1.466,0,0,0,.879-0.226v-0.907l-0.706,0v-0.988h1.765V114.3a2.856,2.856,0,0,1-1.945.706A2.578,2.578,0,0,1,109.524,114.244Z" transform="translate(-6.843 -9.821)"/>
      <path class="cls-1" d="M45.673,123.68v-5.3H49.4v0.988H46.733v1.13H48.7v0.985H46.733v2.192H45.673Z" transform="translate(-6.843 -9.821)"/>
      <path class="cls-1" d="M67,123.68l2.118-5.3h1.059l2.115,5.292-1.126,0-0.318-.812h-2.4l-0.318.812H67ZM69.68,119.8l-0.8,2.012h1.589Z" transform="translate(-6.843 -9.821)"/>
      <path class="cls-1" d="M90.2,118.381h1.055v5.3H90.2v-5.3Z" transform="translate(-6.843 -9.821)"/>
      <path class="cls-1" d="M112.623,121.372l1.321,2.309h-1.214l-1.268-2.189h-0.967v2.189h-1.059v-5.3h2.308q1.854,0,1.854,1.525A1.369,1.369,0,0,1,112.623,121.372Zm-2.128-.868h1.483a0.566,0.566,0,0,0,.656-0.583,0.554,0.554,0,0,0-.646-0.544h-1.493V120.5Z" transform="translate(-6.843 -9.821)"/>
    </g>
    <path class="cls-1" d="M48.982,91.766c0.534,0,1.425.846,3.251,1.648a11.781,11.781,0,0,0,5.344,1.2c4.631,0,6.947-2.271,6.947-5.611,0-2-1.291-3.518-3.83-4.631a38.2,38.2,0,0,0-4.052-1.336,30.412,30.412,0,0,1-4.765-1.781c-2.984-1.47-4.5-3.7-4.5-6.68,0-5.032,3.83-8.06,10.732-8.06a17.422,17.422,0,0,1,6.947,1.291c1.381,0.534,2.049,1.247,2.049,2.093a1.6,1.6,0,0,1-1.692,1.648,20.413,20.413,0,0,1-3.028-1.158,13.265,13.265,0,0,0-4.453-.8c-4.5,0-6.814,1.692-6.814,4.9,0,2.093,1.514,3.429,4.364,4.5a28.278,28.278,0,0,0,2.85.891,26.681,26.681,0,0,1,6.1,2.227,7.26,7.26,0,0,1,3.919,6.591,7.946,7.946,0,0,1-2.984,6.591,11.9,11.9,0,0,1-7.793,2.4,19.641,19.641,0,0,1-8.639-2.138c-1.113-.668-1.692-1.336-1.692-2.049A1.66,1.66,0,0,1,48.982,91.766ZM71.649,66.917H93.693a1.582,1.582,0,0,1,0,3.162H84.43V95.953c0.134,2.227-3.652,2.227-3.563,0V70.079H71.649A1.581,1.581,0,0,1,71.649,66.917Zm37.14,1.781a2.105,2.105,0,0,1,2.182-2.182,2.178,2.178,0,0,1,1.959,1.158l11.044,18.214,11.044-18.214a2.178,2.178,0,0,1,1.959-1.158A2.105,2.105,0,0,1,139.16,68.7V96a1.637,1.637,0,0,1-1.692,1.692A1.675,1.675,0,0,1,135.731,96V73.107l-10.02,16.21a1.919,1.919,0,0,1-3.474,0l-10.02-16.21V96a1.715,1.715,0,0,1-3.429,0V68.7Zm-88.305-.045a1.771,1.771,0,0,1,1.823-1.737h9.387c4.739,0,9.433,2.4,9.433,7.7,0,3.34-1.549,5.611-4.056,6.68V81.39c4.329,0.846,6.608,3.7,6.608,7.749,0,5.656-5.058,8.1-10.253,8.1H22.307a1.771,1.771,0,0,1-1.823-1.737V68.654Zm3.646,11.712h7.61c3.281,0,5.742-1.737,5.742-5.344,0-3.384-2.689-5.21-6.334-5.21H24.129V80.366Zm0,13.939H32.7c3.919,0,7.154-1.381,7.291-5.567,0-3.162-2.278-5.478-6.608-5.478H24.129V94.3Zm77.249-23.916a1.029,1.029,0,0,1,0-2.058h0.731V68.253c0.134-2.227-3.652-2.227-3.563,0v27.7c-0.089,2.227,3.7,2.227,3.563,0V70.389h-0.731Z" transform="translate(-6.843 -9.821)"/>
  </g>
</svg>
